\relax 
\bibstyle{notplainnat}
\bibdata{papers}
\@writefile{toc}{\contentsline {section}{\numberline {1}Introduction}{2}}
\newlabel{Section:Introduction}{{1}{2}}
\@writefile{toc}{\contentsline {section}{\numberline {2}•}{2}}
\@writefile{toc}{\contentsline {section}{\numberline {3}•}{2}}
\@writefile{toc}{\contentsline {subsection}{\numberline {3.1}•}{2}}
\@writefile{toc}{\contentsline {subsection}{\numberline {3.2}•}{2}}
\@writefile{toc}{\contentsline {section}{\numberline {4}•}{2}}
\@writefile{toc}{\contentsline {section}{\numberline {5}•}{2}}
\@writefile{toc}{\contentsline {section}{\numberline {6}Discussion}{2}}
\@writefile{toc}{\contentsline {section}{\numberline {7}Conclusion}{2}}
